@startuml

hide empty members


class Application {
}

class RepresentativeService {
}

class TeamService {
}

class RaceService {
}

class Race {
- String name
- int id
- SimpleDateFormat startDate
- SimpleDateFormat endDate
}

class Team {
name
}

class Representative {
}

class Email {
String email
}

class StageList {
}

interface Stage {
}

interface StaffMember {
}

interface Athlete {
}

class StandardStage {
- int id
- SimpleDateFormat startTimeAndDate
- String startLocation
- String finishLocation
- double distance
}

class Cyclist {
number plate
}

class CyclistCoach {
number plate
}

class Coach {
}

class Standings {
- Map<Cyclist, Map<numberPlate, time>>
}

class UCINumber {
- Integer number
}

class PersonData {
- id
- name
- date of birth
}

class CyclistData {
double weight
double height
}

Application *-- RaceService : has >
Application *-- TeamService : has >
Application *-- RepresentativeService : has >
RepresentativeService -o TeamService : has <

RaceService *-- Race : has >
TeamService *-- Team : has list >
Representative -o Team : has <
RepresentativeService *-- Representative : has list >

Race *- StageList : has >
StageList *- Stage : has list >
Race *-- Standings : has >
Stage .-|> StandardStage : implements
StandardStage *-left- Standings : has >
Standings o-left- Athlete : has


Team *-- StaffMember : has >
Team *-- Athlete : has list >
Athlete <|-. Cyclist : implements
Athlete <|-. CyclistCoach: implements
StaffMember <|-. CyclistCoach  : implements
StaffMember <|-. Coach  : implements
Representative *-- PersonData
Representative *-- Email


Cyclist *-- PersonData
CyclistCoach *-- PersonData
Coach *-- PersonData
Cyclist *-- CyclistData
CyclistCoach *-- CyclistData
CyclistData *- UCINumber


@enduml